{
  //Backend
  "ip": "http://testnode:3001",
  "msluser" : "http://localhost:3002",
  "redis" : {
    "host": "pub-redis-15560.eu-central-1-1.1.ec2.redislabs.com",
    "port": 15560,
    "passwort": "QamqgYzCsyvsodZGQb9ZmcPdc5J8MIrT"
  },
  "google" : {
    "clientID": "368516282025-9lffpdl8ivk2acibgj38v6die2638754.apps.googleusercontent.com",
    "clientSecret": "AgNO9VBHxnzHL15_WL8gy0ZG",
    "callbackURL": "/auth/google/redirect"
  }
}
